{
	"info": {
		"_postman_id": "febb320d-9120-463f-a7fb-0375a585fa14",
		"name": "CompleteWalkthrough1",
		"schema": "https://schema.getpostman.com/json/collection/v2.1.0/collection.json"
	},
	"item": [
		{
			"name": "localhost:8080/administration/register",
			"request": {
				"auth": {
					"type": "noauth"
				},
				"method": "POST",
				"header": [],
				"body": {
					"mode": "raw",
					"raw": "{\n\t\"accountId\": \"Marco\"\n}",
					"options": {
						"raw": {
							"language": "json"
						}
					}
				},
				"url": {
					"raw": "localhost:8080/administration/register",
					"host": [
						"localhost"
					],
					"port": "8080",
					"path": [
						"administration",
						"register"
					]
				},
				"description": "1. Registracija korisnika Marco"
			},
			"response": []
		},
		{
			"name": "localhost:8080/administration/register",
			"request": {
				"auth": {
					"type": "noauth"
				},
				"method": "POST",
				"header": [],
				"body": {
					"mode": "raw",
					"raw": "{\n\t\"accountId\": \"Marco\"\n}",
					"options": {
						"raw": {
							"language": "json"
						}
					}
				},
				"url": {
					"raw": "localhost:8080/administration/register",
					"host": [
						"localhost"
					],
					"port": "8080",
					"path": [
						"administration",
						"register"
					]
				},
				"description": "2. Registracija istog korisnika drugi put"
			},
			"response": []
		},
		{
			"name": "localhost:8080/administration/short",
			"request": {
				"auth": {
					"type": "basic",
					"basic": [
						{
							"key": "password",
							"value": "1,fLemJ1B9(SKX8",
							"type": "string"
						},
						{
							"key": "username",
							"value": "Marco",
							"type": "string"
						}
					]
				},
				"method": "POST",
				"header": [],
				"body": {
					"mode": "raw",
					"raw": "{\n\t\"url\": \"https://www.youtube.com\"\n}",
					"options": {
						"raw": {
							"language": "json"
						}
					}
				},
				"url": {
					"raw": "localhost:8080/administration/short",
					"host": [
						"localhost"
					],
					"port": "8080",
					"path": [
						"administration",
						"short"
					]
				},
				"description": "3. Koristeći dobivenu šifru short-amo url"
			},
			"response": []
		},
		{
			"name": "localhost:8080/administration/short",
			"request": {
				"auth": {
					"type": "basic",
					"basic": [
						{
							"key": "password",
							"value": "1,fLemJ1B9(SKX8",
							"type": "string"
						},
						{
							"key": "username",
							"value": "Marco",
							"type": "string"
						}
					]
				},
				"method": "POST",
				"header": [],
				"body": {
					"mode": "raw",
					"raw": "{\n\t\"url\": \"https://www.facebook.com\",\n\t\"redirectType\": 301\n}",
					"options": {
						"raw": {
							"language": "json"
						}
					}
				},
				"url": {
					"raw": "localhost:8080/administration/short",
					"host": [
						"localhost"
					],
					"port": "8080",
					"path": [
						"administration",
						"short"
					]
				},
				"description": "4. S istim korisnikom short-amo jos jedan url uz definiranje redirectType-a"
			},
			"response": []
		},
		{
			"name": "localhost:8080/administration/short",
			"request": {
				"auth": {
					"type": "basic",
					"basic": [
						{
							"key": "password",
							"value": "1,fLemJ1B9(SKX8",
							"type": "string"
						},
						{
							"key": "username",
							"value": "Marco",
							"type": "string"
						}
					]
				},
				"method": "POST",
				"header": [],
				"body": {
					"mode": "raw",
					"raw": "{\n\t\"url\": \"https://www.youtube.com\"\n}",
					"options": {
						"raw": {
							"language": "json"
						}
					}
				},
				"url": {
					"raw": "localhost:8080/administration/short",
					"host": [
						"localhost"
					],
					"port": "8080",
					"path": [
						"administration",
						"short"
					]
				},
				"description": "5. Shortanje url-a koji već postoji u bazi za trenutnog korisnika, vraća se shortUrl iz baze"
			},
			"response": []
		},
		{
			"name": "localhost:8080/administration/statistics",
			"protocolProfileBehavior": {
				"disableBodyPruning": true
			},
			"request": {
				"auth": {
					"type": "basic",
					"basic": [
						{
							"key": "password",
							"value": "1,fLemJ1B9(SKX8",
							"type": "string"
						},
						{
							"key": "username",
							"value": "Marco",
							"type": "string"
						}
					]
				},
				"method": "GET",
				"header": [],
				"body": {
					"mode": "raw",
					"raw": "",
					"options": {
						"raw": {
							"language": "json"
						}
					}
				},
				"url": {
					"raw": "localhost:8080/administration/statistics",
					"host": [
						"localhost"
					],
					"port": "8080",
					"path": [
						"administration",
						"statistics"
					]
				},
				"description": "6. Ispis statistike za korisnika"
			},
			"response": []
		},
		{
			"name": "localhost:8080/shorty/d8rHT8u",
			"protocolProfileBehavior": {
				"disableBodyPruning": true
			},
			"request": {
				"auth": {
					"type": "basic",
					"basic": [
						{
							"key": "password",
							"value": "1,fLemJ1B9(SKX8",
							"type": "string"
						},
						{
							"key": "username",
							"value": "Marco",
							"type": "string"
						}
					]
				},
				"method": "GET",
				"header": [],
				"body": {
					"mode": "raw",
					"raw": "",
					"options": {
						"raw": {
							"language": "json"
						}
					}
				},
				"url": {
					"raw": "localhost:8080/shorty/d8rHT8u",
					"host": [
						"localhost"
					],
					"port": "8080",
					"path": [
						"shorty",
						"d8rHT8u"
					]
				},
				"description": "7. Koristimo short-ani url te smo redirectani na ful url, napomena meni je ovo bio short url!, Tebi će biti definiran tvoj isto kao password od usera. H2 na čuva stanje."
			},
			"response": []
		},
		{
			"name": "localhost:8080/shorty/d8rHT8u",
			"protocolProfileBehavior": {
				"disableBodyPruning": true
			},
			"request": {
				"auth": {
					"type": "basic",
					"basic": [
						{
							"key": "password",
							"value": "1,fLemJ1B9(SKX8",
							"type": "string"
						},
						{
							"key": "username",
							"value": "Marco",
							"type": "string"
						}
					]
				},
				"method": "GET",
				"header": [],
				"body": {
					"mode": "raw",
					"raw": "",
					"options": {
						"raw": {
							"language": "json"
						}
					}
				},
				"url": {
					"raw": "localhost:8080/shorty/d8rHT8u",
					"host": [
						"localhost"
					],
					"port": "8080",
					"path": [
						"shorty",
						"d8rHT8u"
					]
				},
				"description": "8. ponovimo redirekciju još jednom"
			},
			"response": []
		},
		{
			"name": "localhost:8080/administration/statistics",
			"protocolProfileBehavior": {
				"disableBodyPruning": true
			},
			"request": {
				"auth": {
					"type": "basic",
					"basic": [
						{
							"key": "password",
							"value": "1,fLemJ1B9(SKX8",
							"type": "string"
						},
						{
							"key": "username",
							"value": "Marco",
							"type": "string"
						}
					]
				},
				"method": "GET",
				"header": [],
				"body": {
					"mode": "raw",
					"raw": "",
					"options": {
						"raw": {
							"language": "json"
						}
					}
				},
				"url": {
					"raw": "localhost:8080/administration/statistics",
					"host": [
						"localhost"
					],
					"port": "8080",
					"path": [
						"administration",
						"statistics"
					]
				},
				"description": "9. Ispis statisteke u trenutnom stanju"
			},
			"response": []
		}
	],
	"protocolProfileBehavior": {}
}