{
	"info": {
		"_postman_id": "041b36b1-3bb5-419c-95a6-2bf7033c7958",
		"name": "ShortUrlTesting",
		"schema": "https://schema.getpostman.com/json/collection/v2.1.0/collection.json"
	},
	"item": [
		{
			"name": "localhost:8080/administration/register",
			"request": {
				"auth": {
					"type": "noauth"
				},
				"method": "POST",
				"header": [],
				"body": {
					"mode": "raw",
					"raw": "{\n\t\"accountId\": \"Marco\"\n}",
					"options": {
						"raw": {
							"language": "json"
						}
					}
				},
				"url": {
					"raw": "localhost:8080/administration/register",
					"host": [
						"localhost"
					],
					"port": "8080",
					"path": [
						"administration",
						"register"
					]
				},
				"description": "1. Registracija korisnika Marco"
			},
			"response": []
		},
		{
			"name": "localhost:8080/administration/short",
			"request": {
				"auth": {
					"type": "basic",
					"basic": [
						{
							"key": "password",
							"value": "}B]hX$YHI$>[dci",
							"type": "string"
						},
						{
							"key": "username",
							"value": "Marco",
							"type": "string"
						}
					]
				},
				"method": "POST",
				"header": [],
				"body": {
					"mode": "raw",
					"raw": "{\n\t\"url\": \"https://www.youtube.com/\"\n}",
					"options": {
						"raw": {
							"language": "json"
						}
					}
				},
				"url": {
					"raw": "localhost:8080/administration/short",
					"host": [
						"localhost"
					],
					"port": "8080",
					"path": [
						"administration",
						"short"
					]
				},
				"description": "2. Koristeći njegovu generiranu šifru, generiramo shortUrl za zadani url"
			},
			"response": []
		},
		{
			"name": "localhost:8080/administration/short",
			"request": {
				"auth": {
					"type": "basic",
					"basic": [
						{
							"key": "password",
							"value": "",
							"type": "string"
						},
						{
							"key": "username",
							"value": "Filip",
							"type": "string"
						}
					]
				},
				"method": "POST",
				"header": [],
				"body": {
					"mode": "raw",
					"raw": "{\n\t\"url\": \"https://www.youtube.com/\"\n}",
					"options": {
						"raw": {
							"language": "json"
						}
					}
				},
				"url": {
					"raw": "localhost:8080/administration/short",
					"host": [
						"localhost"
					],
					"port": "8080",
					"path": [
						"administration",
						"short"
					]
				},
				"description": "3. pokušavamo kreirati url sa neregistriranim korisnikom"
			},
			"response": []
		},
		{
			"name": "localhost:8080/administration/short",
			"request": {
				"auth": {
					"type": "basic",
					"basic": [
						{
							"key": "password",
							"value": "admin",
							"type": "string"
						},
						{
							"key": "username",
							"value": "admin",
							"type": "string"
						}
					]
				},
				"method": "POST",
				"header": [],
				"body": {
					"mode": "raw",
					"raw": "{\n\t\"URL\": \"https://www.youtube.com/\"\n}",
					"options": {
						"raw": {
							"language": "json"
						}
					}
				},
				"url": {
					"raw": "localhost:8080/administration/short",
					"host": [
						"localhost"
					],
					"port": "8080",
					"path": [
						"administration",
						"short"
					]
				},
				"description": "4. Autentikacija sa admin:admin (On može sve, bez registracije), dajem mu krivo napisan JSON"
			},
			"response": []
		}
	],
	"protocolProfileBehavior": {}
}